{
    "anatomy": "Core Concepts",
    "types": "Data Types",
    "api-abilities": "What can you do with the API?",
    "integration-options": "What are the integration options?",
    "app-scripts": "Application Scripts",
    "low-code-tools": "Low Code Tools"
}