<svg width="165" height="195" viewBox="0 0 165 195" fill="none" xmlns="http://www.w3.org/2000/svg">
<path d="M22.68 117.46C22.89 114.94 22.92 112.42 22.59 109.93C19.99 90.58 6.53002 73.34 14.52 52.5C18.61 41.84 28.89 28.35 43.74 25.44C52.14 23.79 59.55 21.88 63.37 27.08C80.23 50.03 80.83 64.37 116.04 35.95C151.25 7.52999 179.68 54.62 156.03 81.1C146.45 91.82 124.31 91.47 110.59 98.22C100.01 103.43 95.31 117.8 109.51 124.6C123.27 131.19 94.7 147.57 87.73 151C71.12 159.18 45.6 167.02 30.54 157.31C24.48 153.4 21.72 147.22 20.75 140.88C19.57 133.16 22.01 125.27 22.68 117.45V117.46Z" fill="#CDE0EE"/>
<path d="M94.05 170.22L93.9 184.04L122.41 183.73C122.41 183.73 116.68 174.53 108.11 174.3C99.53 174.07 103.71 174.01 103.71 174.01L102.45 168.96L94.06 170.23L94.05 170.22Z" stroke="#3E3F3F" stroke-width="1.16" stroke-miterlimit="10" stroke-linecap="round"/>
<path d="M27.11 161.92L15.49 169.4L31.44 193.03C31.44 193.03 35.97 183.18 31.44 175.9C26.91 168.61 29.26 172.07 29.26 172.07L33.45 167.51L27.11 161.93V161.92Z" stroke="#3E3F3F" stroke-width="1.16" stroke-miterlimit="10" stroke-linecap="round"/>
<path d="M64.28 108.14C64.32 108.21 66.12 111.39 68.19 115.49C68.99 116.15 69.85 116.88 70.75 117.66C68.22 112.41 65.63 107.84 65.43 107.49L64.27 108.15L64.28 108.14Z" fill="#3E3F3F"/>
<path d="M81.5 168.86L112.91 169.66L112.82 168.9C112.61 167.02 107.61 122.68 106.3 117.23C105.54 114.1 99.07 109.21 93.77 105.67C87.86 101.71 80.97 97.85 77.74 96.68C76.84 96.36 76.26 96.25 75.86 96.35L54.24 91.52L58.54 93.59L58.43 93.81L76.07 97.75L76.23 97.63C77.35 97.64 83.52 100.61 91.04 105.45C99.12 110.64 104.47 115.27 105.02 117.53C106.22 122.51 110.74 162.26 111.43 168.28L82.87 167.55C82.94 163.39 83.31 140.79 83.44 134.31C83.53 129.74 76.45 122.66 70.77 117.73C71.26 118.74 71.74 119.77 72.2 120.8C77.29 125.49 82.17 130.93 82.1 134.28C81.96 141.39 81.52 167.91 81.52 168.18V168.84L81.5 168.86Z" fill="#3E3F3F"/>
<path d="M74.36 131.43C74.78 136.07 54.38 158.64 40.27 172.98L18.47 152.43L49.73 130.33L48.76 129.83C41.84 126.28 37.36 121.21 35.44 114.75C31.82 102.57 38.4 88.94 39.9 86.08L52.01 91.92L52.2 91.07L54.25 91.53L39.35 84.34L39.04 84.88C38.67 85.53 29.96 100.96 34.17 115.13C36.1 121.64 40.48 126.81 47.2 130.51L16.39 152.3L40.32 174.86L40.78 174.4C44.42 170.71 76.32 138.14 75.7 131.33C75.47 128.75 73.98 124.8 72.21 120.85C71.37 120.07 70.52 119.32 69.69 118.6C71.94 123.29 74.1 128.45 74.38 131.45L74.36 131.43Z" fill="#3E3F3F"/>
<path d="M52.01 91.78L53.8 92.65L58.43 93.68L58.54 93.46L54.24 91.38L52.2 90.92L52.01 91.78Z" fill="#3E3F3F"/>
<path d="M68.2 115.48C68.68 116.44 69.18 117.44 69.67 118.47C70.5 119.19 71.35 119.95 72.19 120.73C71.73 119.69 71.24 118.66 70.76 117.65C69.86 116.87 68.99 116.14 68.2 115.48V115.48Z" fill="#3E3F3F"/>
<path d="M15.52 66.64C23.8209 66.64 30.55 59.9108 30.55 51.61C30.55 43.3091 23.8209 36.58 15.52 36.58C7.21918 36.58 0.48999 43.3091 0.48999 51.61C0.48999 59.9108 7.21918 66.64 15.52 66.64Z" fill="#FCEEA9"/>
<path d="M156.955 59.8985L133.396 50.1401C132.355 49.7089 131.162 50.2032 130.731 51.2441L116.721 85.0673C116.29 86.1082 116.784 87.3016 117.825 87.7327L141.384 97.4912C142.425 97.9223 143.618 97.428 144.049 96.3871L158.059 62.5639C158.49 61.523 157.996 60.3296 156.955 59.8985Z" fill="white" stroke="#3E3F3F" stroke-width="0.74" stroke-miterlimit="10"/>
<path d="M141.47 56.12L146.4 58.16" stroke="#3E3F3F" stroke-width="0.37" stroke-miterlimit="10" stroke-linecap="round"/>
<path d="M127.31 88.49L134.9 91.64" stroke="#3E3F3F" stroke-width="0.37" stroke-miterlimit="10" stroke-linecap="round"/>
<path d="M130.32 71.57C128.21 68.55 129.37 65.28 132.22 63.72C134.46 62.49 138.88 61.0499 141.92 62.1299C144.3 62.9699 144.73 65.31 145.54 67.04C148.02 72.36 148.39 79.4899 141.64 81.2399C140.66 81.4899 139.53 81.53 138.46 81.18C137.29 80.79 136.3 79.9599 135.65 79.0199C134.72 77.6899 134.74 76.3399 134.12 74.9899C133.84 74.3899 133.42 73.81 132.93 73.3C132.6 72.96 132.24 72.6599 131.84 72.3799C131.54 72.1699 130.49 71.8 130.33 71.57H130.32Z" fill="#4F6FFF"/>
<path d="M136.56 77.9969C137.377 76.0222 136.001 73.5768 133.486 72.5348C130.97 71.4929 128.268 72.249 127.45 74.2236C126.632 76.1982 128.008 78.6437 130.524 79.6856C133.039 80.7276 135.742 79.9715 136.56 77.9969Z" fill="#FCEEA9" stroke="white" stroke-width="0.62" stroke-miterlimit="10"/>
<path d="M147.77 90.76C147.34 90.27 146.92 89.76 146.64 89.15C146.38 88.59 146.17 88.02 145.93 87.45" fill="#E54E9B"/>
<path d="M72.17 40.24L76.55 27.42L87.45 38.12L72.17 40.24Z" fill="white" stroke="#3E3F3F" stroke-width="0.97" stroke-miterlimit="10"/>
<path d="M95.84 55.78C91.18 47.84 85.04 37.65 84.22 37.63C84.22 37.63 91.7 37.63 78.57 38.11C78.57 38.11 52.84 26.76 36.65 81.67L33.34 93.17L99.35 105.58C102.55 96.58 101.9 86.65 101.82 77.25C101.82 77.21 101.82 77.17 101.82 77.13C101.75 69.62 99.66 62.26 95.86 55.78H95.84Z" fill="#8AC5A8" stroke="#3E3F3F" stroke-width="0.86" stroke-miterlimit="10"/>
<path d="M75 49.22C74.31 49.95 82.94 63.53 83.99 64.43C88.3 68.14 93.01 71.38 98.02 74.09C107.75 79.35 118.3 81.66 128.93 84.22C129.75 83.57 132.24 81.36 133.2 77.88C134.34 73.69 135.53 71.68 136.29 73.01C137.05 74.34 137.35 76.86 136.59 80.47C135.83 84.09 139.98 83.06 139.98 83.06C139.98 83.06 152.05 80.55 151.56 82.04C151.06 83.52 151.79 82.69 151.64 83.91L151.45 85.43C151.45 85.43 151.79 85.16 151.64 86.38C151.49 87.6 151.75 87.94 151.33 88.82C150.91 89.7 148.89 93.46 144.55 93.54C144.55 93.54 134.23 94.41 130.39 93C105.51 91.62 80.35 80.6 64.61 61.28C67.2 58.52 72.39 52.02 75.02 49.22H75Z" fill="white" stroke="#3E3F3F" stroke-width="0.58" stroke-miterlimit="10"/>
<path d="M142.99 86.07C142.99 86.07 149.54 85.65 151.44 82.8Z" fill="white"/>
<path d="M142.99 86.07C142.99 86.07 149.54 85.65 151.44 82.8" stroke="#3E3F3F" stroke-width="0.69" stroke-miterlimit="10" stroke-linecap="round"/>
<path d="M144.38 88.56C144.38 88.56 149.41 87.95 151.27 85.4Z" fill="white"/>
<path d="M144.38 88.56C144.38 88.56 149.41 87.95 151.27 85.4" stroke="#3E3F3F" stroke-width="0.69" stroke-miterlimit="10" stroke-linecap="round"/>
<path d="M144.99 91.11C144.99 91.11 149.75 90.16 151.35 87.27Z" fill="white"/>
<path d="M144.99 91.11C144.99 91.11 149.75 90.16 151.35 87.27" stroke="#3E3F3F" stroke-width="0.69" stroke-miterlimit="10" stroke-linecap="round"/>
<path d="M67.14 40.68C67.14 40.68 79.6 36.88 90.49 65.68L74.11 78.13C74.11 78.13 50.4801 62.87 55.8401 47.77C55.8401 47.77 57.98 40.79 67.14 40.67V40.68Z" fill="#029917"/>
<path d="M69 38.99C69 38.99 81.46 35.19 92.35 63.99L75.97 76.44C75.97 76.44 52.34 61.18 57.7 46.08C57.7 46.08 59.84 39.1 69 38.98V38.99Z" fill="#00D223"/>
<path d="M100.21 14.04C101.66 13.08 103.39 10.26 102.64 8.51998C102.44 8.04998 102.07 7.65998 101.69 7.30998C99.54 5.38998 96.49 4.68998 93.76 3.99998C90.54 3.18998 87.28 3.19998 84.02 2.70998C80.02 2.09998 73.95 -0.910019 70.78 2.85998C68.56 5.49998 68.28 9.65998 68.15 12.95C67.43 32.67 67.74 35.63 67.74 35.63L79.81 39.42C79.81 39.42 83.2 25.31 100.2 14.03L100.21 14.04Z" fill="white" stroke="black" stroke-width="0.87" stroke-linecap="round" stroke-linejoin="round"/>
<path d="M101.22 12.09C101.34 13.12 101.38 14.14 101.56 15.16C102.5 20.45 101.18 25.79 98.52 30.39C96.92 33.15 94.83 36.08 92.46 38.24C90.35 40.16 88.34 40.5 85.61 40.49C83.28 40.49 80.16 40.39 78.72 38.21C78.72 38.21 85.58 30.41 82.59 27.28C82.59 27.28 77.09 26.04 80.28 20.52C80.28 20.52 83.53 14.78 85.84 19.7C85.87 19.77 86.32 19.79 86.38 19.8C86.89 19.87 87.42 19.87 87.94 19.84C89.91 19.73 91.82 19.07 93.57 18.18C94.85 17.52 96.05 16.72 97.17 15.84C97.86 15.3 98.53 14.72 99.17 14.12C99.52 13.79 99.87 13.45 100.21 13.11C100.5 12.82 100.88 12.23 101.23 12.08L101.22 12.09Z" fill="white" stroke="black" stroke-width="0.87" stroke-linecap="round" stroke-linejoin="round"/>
<path d="M100.28 27.0099L101.74 33.22C101.74 33.22 101.06 34.36 99.88 34.08C98.7 33.8 96.9 33.0999 96.9 33.0999L100.27 27.0099H100.28Z" fill="white" stroke="black" stroke-width="0.87" stroke-linecap="round" stroke-linejoin="round"/>
<path d="M93.9674 25.5958C94.4414 24.9573 94.4267 24.1434 93.9345 23.7779C93.4423 23.4125 92.659 23.6339 92.1849 24.2725C91.7108 24.9111 91.7256 25.7249 92.2178 26.0904C92.71 26.4558 93.4933 26.2344 93.9674 25.5958Z" fill="black"/>
<path d="M89.93 29.7599C89.93 29.7599 91.19 33.84 94.96 35.08C94.96 35.08 92.36 39.4 90.66 39.41C90.66 39.41 86.29 37.3999 89.92 29.7599H89.93Z" fill="black"/>
<path d="M76.32 39.52C77.92 40.72 79.39 42.12 80.67 43.53C86.67 50.16 92.08 57.34 97.02 64.8C108.06 81.48 127.28 79.99 127.28 79.99L125.98 103.48C126 103.21 117.63 100.69 117.1 100.5C110.05 97.95 103.12 95.07 96.37 91.81C81.76 84.75 64.23 75.02 57.22 59.53C54.69 53.94 53.64 46.5 57.47 41.22C62.27 34.62 70.27 34.97 76.33 39.52H76.32Z" fill="#8AC5A8" stroke="#3E3F3F" stroke-width="0.86" stroke-miterlimit="10"/>
</svg>
